{
"RECORDS":[
{
"user_id":1,
"owner_id":1,
"owner_type":"App\\Admin",
"username":"admin",
"password":"$2y$10$6vqzXlCFA3sZNkUrecwzLu3bXCYW0PBUuGhRFioAyC6FCYDtONPqC",
"email_address":"admin@gmail.com",
"user_type":1,
"verified":1,
"confirm":1,
"created_at":"2020\/10\/20 11:11:13",
"updated_at":null,
"deleted_at":null
}
]
}